<mxfile host="65bd71144e">
    <diagram id="jkTRGpxCLgMDSzKF9n6n" name="Page-1">
        <mxGraphModel dx="548" dy="531" grid="1" gridSize="10" guides="1" tooltips="1" connect="1" arrows="1" fold="1" page="1" pageScale="1" pageWidth="850" pageHeight="1100" math="0" shadow="0">
            <root>
                <mxCell id="0"/>
                <mxCell id="1" parent="0"/>
                <mxCell id="172" value="" style="rounded=0;whiteSpace=wrap;html=1;fontSize=14;dashed=1;" parent="1" vertex="1">
                    <mxGeometry x="460.5" y="80" width="339.5" height="110" as="geometry"/>
                </mxCell>
                <mxCell id="170" value="" style="rounded=0;whiteSpace=wrap;html=1;fontSize=14;dashed=1;" parent="1" vertex="1">
                    <mxGeometry x="460.5" y="250" width="339.5" height="130" as="geometry"/>
                </mxCell>
                <mxCell id="48" value="" style="rounded=0;whiteSpace=wrap;html=1;fontSize=14;" parent="1" vertex="1">
                    <mxGeometry x="41" y="80" width="319" height="240" as="geometry"/>
                </mxCell>
                <mxCell id="49" value="" style="rounded=1;whiteSpace=wrap;html=1;" parent="1" vertex="1">
                    <mxGeometry x="190" y="127" width="150" height="20" as="geometry"/>
                </mxCell>
                <mxCell id="50" value="Login" style="text;html=1;strokeColor=none;fillColor=none;align=left;verticalAlign=middle;whiteSpace=wrap;rounded=0;fontStyle=1" parent="1" vertex="1">
                    <mxGeometry x="60" y="89" width="90" height="30" as="geometry"/>
                </mxCell>
                <mxCell id="51" value="E-mail address:" style="text;html=1;strokeColor=none;fillColor=none;align=left;verticalAlign=middle;whiteSpace=wrap;rounded=0;" parent="1" vertex="1">
                    <mxGeometry x="60" y="122" width="90" height="30" as="geometry"/>
                </mxCell>
                <mxCell id="52" value="" style="rounded=1;whiteSpace=wrap;html=1;" parent="1" vertex="1">
                    <mxGeometry x="190" y="157" width="150" height="20" as="geometry"/>
                </mxCell>
                <mxCell id="53" value="Password:" style="text;html=1;strokeColor=none;fillColor=none;align=left;verticalAlign=middle;whiteSpace=wrap;rounded=0;" parent="1" vertex="1">
                    <mxGeometry x="60" y="152" width="90" height="30" as="geometry"/>
                </mxCell>
                <mxCell id="54" value="Login" style="rounded=1;whiteSpace=wrap;html=1;" parent="1" vertex="1">
                    <mxGeometry x="190" y="216" width="80" height="30" as="geometry"/>
                </mxCell>
                <mxCell id="57" value="Forgot password?&lt;br&gt;Click here to reset password." style="text;html=1;strokeColor=none;fillColor=none;align=left;verticalAlign=middle;whiteSpace=wrap;rounded=0;" parent="1" vertex="1">
                    <mxGeometry x="60" y="260" width="160" height="30" as="geometry"/>
                </mxCell>
                <mxCell id="58" value="" style="endArrow=none;html=1;fontSize=14;fillColor=#FFFFFF;" parent="1" edge="1">
                    <mxGeometry width="50" height="50" relative="1" as="geometry">
                        <mxPoint x="135" y="292" as="sourcePoint"/>
                        <mxPoint x="213" y="292" as="targetPoint"/>
                    </mxGeometry>
                </mxCell>
                <mxCell id="76" value="&lt;i&gt;When the wrong e-mail address and/or the password are entered (the server responds with an error message, the form is reset).&lt;/i&gt;" style="text;html=1;strokeColor=none;fillColor=none;align=left;verticalAlign=middle;whiteSpace=wrap;rounded=0;fontStyle=1" parent="1" vertex="1">
                    <mxGeometry x="469.5" y="251" width="319.5" height="59" as="geometry"/>
                </mxCell>
                <mxCell id="150" value="Please enter your e-mail address." style="text;html=1;strokeColor=none;fillColor=none;align=left;verticalAlign=middle;whiteSpace=wrap;rounded=0;" parent="1" vertex="1">
                    <mxGeometry x="469.5" y="122" width="239.5" height="27" as="geometry"/>
                </mxCell>
                <mxCell id="151" value="*" style="text;html=1;strokeColor=none;fillColor=none;align=left;verticalAlign=middle;whiteSpace=wrap;rounded=0;" parent="1" vertex="1">
                    <mxGeometry x="344" y="122" width="20" height="30" as="geometry"/>
                </mxCell>
                <mxCell id="152" value="*" style="text;html=1;strokeColor=none;fillColor=none;align=left;verticalAlign=middle;whiteSpace=wrap;rounded=0;" parent="1" vertex="1">
                    <mxGeometry x="344" y="152" width="20" height="30" as="geometry"/>
                </mxCell>
                <mxCell id="153" value="Please enter your password." style="text;html=1;strokeColor=none;fillColor=none;align=left;verticalAlign=middle;whiteSpace=wrap;rounded=0;" parent="1" vertex="1">
                    <mxGeometry x="469.5" y="152" width="239.5" height="27" as="geometry"/>
                </mxCell>
                <mxCell id="154" value="* required fields" style="text;html=1;strokeColor=none;fillColor=none;align=left;verticalAlign=middle;whiteSpace=wrap;rounded=0;" parent="1" vertex="1">
                    <mxGeometry x="190" y="181" width="90" height="30" as="geometry"/>
                </mxCell>
                <mxCell id="155" value="" style="shape=flexArrow;endArrow=classic;html=1;fontSize=14;width=66.48648648648648;endSize=10.302702702702701;endWidth=18.115412710007305;fillColor=default;" parent="1" edge="1">
                    <mxGeometry width="50" height="50" relative="1" as="geometry">
                        <mxPoint x="360" y="140.19" as="sourcePoint"/>
                        <mxPoint x="459.0000000000001" y="140.00000000000006" as="targetPoint"/>
                    </mxGeometry>
                </mxCell>
                <mxCell id="156" value="Validation on Client Side" style="text;html=1;strokeColor=none;fillColor=none;align=center;verticalAlign=middle;whiteSpace=wrap;rounded=0;" parent="1" vertex="1">
                    <mxGeometry x="366" y="110" width="73" height="60" as="geometry"/>
                </mxCell>
                <mxCell id="173" value="Client Side Validation" style="text;html=1;strokeColor=none;fillColor=none;align=left;verticalAlign=middle;whiteSpace=wrap;rounded=0;fontStyle=1" parent="1" vertex="1">
                    <mxGeometry x="459.5" y="49" width="150.5" height="27" as="geometry"/>
                </mxCell>
                <mxCell id="174" value="Server Side Validation" style="text;html=1;strokeColor=none;fillColor=none;align=left;verticalAlign=middle;whiteSpace=wrap;rounded=0;fontStyle=1" parent="1" vertex="1">
                    <mxGeometry x="459.5" y="223" width="150.5" height="27" as="geometry"/>
                </mxCell>
                <mxCell id="175" value="This combination of e-mail address and password is incorrect." style="text;html=1;strokeColor=none;fillColor=none;align=left;verticalAlign=middle;whiteSpace=wrap;rounded=0;" parent="1" vertex="1">
                    <mxGeometry x="470.5" y="317" width="319.5" height="48" as="geometry"/>
                </mxCell>
                <mxCell id="176" value="" style="shape=flexArrow;endArrow=classic;html=1;fontSize=14;width=66.48648648648648;endSize=10.302702702702701;endWidth=18.115412710007305;fillColor=default;" parent="1" edge="1">
                    <mxGeometry width="50" height="50" relative="1" as="geometry">
                        <mxPoint x="360" y="280.19000000000005" as="sourcePoint"/>
                        <mxPoint x="459" y="280" as="targetPoint"/>
                    </mxGeometry>
                </mxCell>
                <mxCell id="177" value="Validation on Server Side" style="text;html=1;strokeColor=none;fillColor=none;align=center;verticalAlign=middle;whiteSpace=wrap;rounded=0;" parent="1" vertex="1">
                    <mxGeometry x="366" y="250" width="73" height="60" as="geometry"/>
                </mxCell>
                <mxCell id="178" value="Your e-mail address is incomplete. Please try again." style="text;html=1;strokeColor=none;fillColor=none;align=left;verticalAlign=middle;whiteSpace=wrap;rounded=0;" parent="1" vertex="1">
                    <mxGeometry x="469.5" y="89" width="320.5" height="27" as="geometry"/>
                </mxCell>
                <mxCell id="180" value="User logged in as&lt;br&gt;&quot;standardUser&quot;" style="rounded=1;whiteSpace=wrap;html=1;align=right;spacingRight=16;strokeWidth=3;" parent="1" vertex="1">
                    <mxGeometry x="470" y="435" width="200" height="80" as="geometry"/>
                </mxCell>
                <mxCell id="181" value="Result: Logged in User" style="text;html=1;strokeColor=none;fillColor=none;align=left;verticalAlign=middle;whiteSpace=wrap;rounded=0;fontStyle=1" parent="1" vertex="1">
                    <mxGeometry x="470" y="400" width="220" height="30" as="geometry"/>
                </mxCell>
                <mxCell id="182" value="" style="shape=umlActor;verticalLabelPosition=bottom;verticalAlign=top;html=1;outlineConnect=0;" parent="1" vertex="1">
                    <mxGeometry x="493" y="448" width="30" height="50" as="geometry"/>
                </mxCell>
            </root>
        </mxGraphModel>
    </diagram>
</mxfile>